<svg xmlns="http://www.w3.org/2000/svg" width="40" height="40" viewBox="0 0 40 40">
    <g fill="none" fill-rule="evenodd">
        <path fill="#4CA586" d="M0 0h40v40H0z" opacity=".01"/>
        <path fill="#B3B7BE" fill-rule="nonzero" d="M8 0C5.78 0 4 1.78 4 4v32a4 4 0 0 0 4 4h24a4 4 0 0 0 4-4V12L24 0H8zm14 3l11 11H22V3zm-2 15a6 6 0 0 1 6 6c0 3.76-4.5 4.12-4.5 7.5h-3c0-4.88 4.5-4.5 4.5-7.5a3 3 0 0 0-6 0h-3a6 6 0 0 1 6-6zm-1.5 15h3v3h-3v-3z"/>
    </g>
</svg>
